Practical Machine Learning Course Project
…
view(head(trainingDF[complete.cases(trainingDF),],10))

Check for the missing values

Removing unnecessary and missing variables.

Remove information not necessary to the outcome variable.

These are the first seven columns of the data.

pml_training <- trainingDF %>% select(-c(1:7))

pml_training %>% miss_var_summary()

## # A tibble: 153 x 3
##    variable             n_miss pct_miss
##    <chr>                 <int>    <dbl>
##  1 max_roll_belt         19216     97.9
##  2 max_picth_belt        19216     97.9
##  3 min_roll_belt         19216     97.9
##  4 min_pitch_belt        19216     97.9
##  5 amplitude_roll_belt   19216     97.9
##  6 amplitude_pitch_belt  19216     97.9
##  7 var_total_accel_belt  19216     97.9
##  8 avg_roll_belt         19216     97.9
##  9 stddev_roll_belt      19216     97.9
## 10 var_roll_belt         19216     97.9
## # ... with 143 more rows
…
